…
library(CraftCans)
```

## Usage

You can get a complete list of all the canned beers Craft Cans have with
`beer_table()`. Since this function downloads and parses data, a faster
alternative is `data("beers")`, which returns a dataframe of these
canned beers, taken from Craft Cans at the end of May 2017.
`beer_table()` will return up-to-date information, however.

``` r
data("beers")
beers
#> # A tibble: 2,410 x 10
#>    ID    Beer   Brewery  City  State Style Ounces ABV_percent  IBUs Litres
#>    <chr> <chr>  <chr>    <chr> <chr> <chr>  <dbl>       <dbl> <dbl>  <dbl>
#>  1 2692  Get T~ NorthGa~ Minn~ MN    Amer~     16         4.5    50  0.473
#>  2 2691  Maggi~ NorthGa~ Minn~ MN    Milk~     16         4.9    26  0.473
#>  3 2690  Wall'~ NorthGa~ Minn~ MN    Engl~     16         4.8    19  0.473
#>  4 2689  Pumpi~ NorthGa~ Minn~ MN    Pump~     16         6      38  0.473
#>  5 2688  Stron~ NorthGa~ Minn~ MN    Amer~     16         6      25  0.473
#>  6 2687  Parap~ NorthGa~ Minn~ MN    Extr~     16         5.6    47  0.473
#>  7 2686  Citra~ Against~ Loui~ KY    Amer~     16         8      68  0.473
#>  8 2685  Londo~ Against~ Loui~ KY    Engl~     16        12.5    80  0.473
#>  9 2684  35 K   Against~ Loui~ KY    Milk~     16         7.7    25  0.473
#> 10 2683  A Beer Against~ Loui~ KY    Amer~     16         4.2    42  0.473
#> # ... with 2,400 more rows
```
…
